Output_UVM.txt
# run 1000ns
--------------------------------------------------
[Generator @0] A=3715585718, B=3878845142, opcode=5, result=0
[Driver] A=3715585718, B=3878845142, opcode=5, result=0
[Monitor] A=3715585718, B=3878845142, opcode=5, result=4286021366
[SCOREBOARD] PASS for opcode=5, a=3715585718, b=3878845142, result=4286021366
--------------------------------------------------
--------------------------------------------------
[Generator @1000] A=2318017486, B=3492410258, opcode=13, result=0
[Driver] A=2318017486, B=3492410258, opcode=13, result=0
[Monitor] A=2318017486, B=3492410258, opcode=13, result=1
[SCOREBOARD] PASS for opcode=13, a=2318017486, b=3492410258, result=1
--------------------------------------------------
--------------------------------------------------
[Generator @2000] A=3738838331, B=875934884, opcode=14, result=0
[Driver] A=3738838331, B=875934884, opcode=14, result=0
[Monitor] A=3738838331, B=875934884, opcode=14, result=0
[SCOREBOARD] PASS for opcode=14, a=3738838331, b=875934884, result=0
--------------------------------------------------
--------------------------------------------------
[Generator @3000] A=3650364069, B=779589581, opcode=5, result=0
[Driver] A=3650364069, B=779589581, opcode=5, result=0
[Monitor] A=3650364069, B=779589581, opcode=5, result=4294424557
[SCOREBOARD] PASS for opcode=5, a=3650364069, b=779589581, result=4294424557
--------------------------------------------------
--------------------------------------------------
[Generator @4000] A=802639687, B=2636455653, opcode=5, result=0
[Driver] A=802639687, B=2636455653, opcode=5, result=0
[Monitor] A=802639687, B=2636455653, opcode=5, result=3220660199
[SCOREBOARD] PASS for opcode=5, a=802639687, b=2636455653, result=3220660199
--------------------------------------------------
--------------------------------------------------
[Generator @5000] A=10716534, B=3895351561, opcode=1, result=0
[Driver] A=10716534, B=3895351561, opcode=1, result=0
[Monitor] A=10716534, B=3895351561, opcode=1, result=410332269
[SCOREBOARD] PASS for opcode=1, a=10716534, b=3895351561, result=410332269
--------------------------------------------------
--------------------------------------------------
[Generator @6000] A=3725596278, B=3037050720, opcode=1, result=0
[Driver] A=3725596278, B=3037050720, opcode=1, result=0
[Monitor] A=3725596278, B=3037050720, opcode=1, result=688545558
[SCOREBOARD] PASS for opcode=1, a=3725596278, b=3037050720, result=688545558
--------------------------------------------------
--------------------------------------------------
[Generator @7000] A=271753489, B=3279184945, opcode=8, result=0
[Driver] A=271753489, B=3279184945, opcode=8, result=0
[Monitor] A=271753489, B=3279184945, opcode=8, result=2073
[SCOREBOARD] PASS for opcode=8, a=271753489, b=3279184945, result=2073
--------------------------------------------------
--------------------------------------------------
[Generator @8000] A=600378575, B=2566695089, opcode=0, result=0
[Driver] A=600378575, B=2566695089, opcode=0, result=0
[Monitor] A=600378575, B=2566695089, opcode=0, result=3167073664
[SCOREBOARD] PASS for opcode=0, a=600378575, b=2566695089, result=3167073664
--------------------------------------------------
--------------------------------------------------
[Generator @9000] A=1021983751, B=691760245, opcode=5, result=0
[Driver] A=1021983751, B=691760245, opcode=5, result=0
[Monitor] A=1021983751, B=691760245, opcode=5, result=1039891575
[SCOREBOARD] PASS for opcode=5, a=1021983751, b=691760245, result=1039891575
--------------------------------------------------
$finish called at time : 10 ns